%YAML 1.1
%TAG !u! tag:unity3d.com,2011:
--- !u!114 &11400000
MonoBehaviour:
  m_ObjectHideFlags: 0
  m_CorrespondingSourceObject: {fileID: 0}
  m_PrefabInstance: {fileID: 0}
  m_PrefabAsset: {fileID: 0}
  m_GameObject: {fileID: 0}
  m_Enabled: 1
  m_EditorHideFlags: 0
  m_Script: {fileID: 11500000, guid: bbb281ee3bf0b054c82ac2347e9e782c, type: 3}
  m_Name: Default Local Group
  m_EditorClassIdentifier: 
  m_GroupName: Default Local Group
  m_Data:
    m_SerializedData: []
  m_GUID: 293ad81e0bf0e4ff8be4b00f8f4aab15
  m_SerializeEntries: []
  m_ReadOnly: 0
  m_Settings: {fileID: 11400000, guid: 934bb7040e6be4891b6711c42c459c0c, type: 2}
  m_SchemaSet:
    m_Schemas:
    - {fileID: 11400000, guid: 91bad48a21cad4c34936aa21594021d1, type: 2}
    - {fileID: 11400000, guid: 9e675254b6b6445438d407f41c26edc3, type: 2}
